Clean Biological Data from Large Unstructured Dataset(s) • envClean
…
Records from flor_all plotted over the area of interest aoi.

Filtering flor_all to aoi is done with filter_geo_range.

  flor_aoi <- filter_geo_range(flor_all
                         , use_aoi = aoi
                         ) %>%
    envFunc::add_time_stamp()
#> Joining with `by = join_by(long, lat)`

  flor_aoi
#> # A tibble: 1,419 × 10
#>     long   lat      area data_name site       date       original_name          rel_metres month  year
#>    <dbl> <dbl>     <dbl> <fct>     <chr>      <date>     <chr>                       <dbl> <dbl> <dbl>
#>  1  140. -34.5 81695918. GBIF      2573957849 2020-02-22 Eremophila glabra             500     2  2020
#>  2  140. -34.5 81695918. GBIF      3902768443 2022-08-14 Triodia scariosa               NA     8  2022
#>  3  140. -34.5 81695918. GBIF      3902326597 2022-08-14 Beyeria lechenaultii           NA     8  2022
#>  4  140. -34.5 81695918. GBIF      3902042262 2022-08-14 Walsholaria magniflora         NA     8  2022
#>  5  140. -34.5 81695918. GBIF      3058875475 2019-09-01 Triodia scariosa              564     9  2019
#>  6  140. -34.5 81695918. GBIF      3058756300 2019-09-01 Westringia rigida             564     9  2019
#>  7  140. -34.5 81695918. GBIF      3902151141 2022-08-14 Phebalium bullatum             NA     8  2022
#>  8  140. -34.5 81695918. GBIF      3902634058 2022-08-14 Acacia rigens                  NA     8  2022
#>  9  140. -34.5 81695918. GBIF      3902018286 2022-08-14 Exocarpos aphyllus             NA     8  2022
#> 10  140. -34.5 81695918. GBIF      3923355578 2022-08-14 Maireana radiata               NA     8  2022
#> # ℹ 1,409 more rows
…
