The full process • envClean
…
Filtering flor_all to aoi is done with filter_geo_range.

  # Filter area of interest
  flor_geo_range <- filter_geo_range(flor_all
                         , use_aoi = aoi
                         , crs_aoi = st_crs(aoi)
                         ) %>%
    add_time_stamp()

  # Have a look at results
  flor_geo_range
#> # A tibble: 1,419 x 9
#>      lat  long data_name site   date       original_name  rel_metres month  year
#>    <dbl> <dbl> <fct>     <chr>  <date>     <chr>               <dbl> <dbl> <dbl>
#>  1 -34.5  140. GBIF      25739~ 2020-02-22 Eremophila gl~        500     2  2020
#>  2 -34.5  140. GBIF      39027~ 2022-08-14 Triodia scari~         NA     8  2022
#>  3 -34.5  140. GBIF      39023~ 2022-08-14 Beyeria leche~         NA     8  2022
#>  4 -34.5  140. GBIF      39020~ 2022-08-14 Walsholaria m~         NA     8  2022
#>  5 -34.5  140. GBIF      30588~ 2019-09-01 Triodia scari~        564     9  2019
#>  6 -34.5  140. GBIF      30587~ 2019-09-01 Westringia ri~        564     9  2019
#>  7 -34.5  140. GBIF      39021~ 2022-08-14 Phebalium bul~         NA     8  2022
#>  8 -34.5  140. GBIF      39026~ 2022-08-14 Acacia rigens          NA     8  2022
#>  9 -34.5  140. GBIF      39020~ 2022-08-14 Exocarpos aph~         NA     8  2022
#> 10 -34.5  140. GBIF      39233~ 2022-08-14 Maireana radi~         NA     8  2022
#> # ... with 1,409 more rows
…
  context <- c("year", "month", "lat", "long", "cell")

  include_data_name <- c("ALIS","BCM","NVB","TERN")

  flor_geo_rel <- filter_geo_rel(flor_geo_range
                              , dist_col = "rel_metres"
                              , dist = 100
                              , context = context
                              , over_ride = list(data_name = include_data_name)
                              ) %>%
    add_time_stamp()
  
  # Have a look at results
  flor_geo_rel
#> # A tibble: 696 x 9
#>      lat  long data_name site   date       original_name  rel_metres month  year
#>    <dbl> <dbl> <fct>     <chr>  <date>     <chr>               <dbl> <dbl> <dbl>
#>  1 -34.6  140. GBIF      10854~ 2006-10-20 Enchylaena to~         50    10  2006
#>  2 -34.6  140. GBIF      10853~ 1990-06-07 Walsholaria m~        100     6  1990
#>  3 -34.6  140. GBIF      10854~ 2006-10-20 Walsholaria m~         50    10  2006
#>  4 -34.6  140. GBIF      10853~ 1990-06-07 Roepera apicu~        100     6  1990
#>  5 -34.6  140. GBIF      10853~ 1990-06-07 Sclerolaena d~        100     6  1990
#>  6 -34.6  140. GBIF      10854~ 2006-10-20 Eucalyptus gr~         50    10  2006
#>  7 -34.6  140. GBIF      10853~ 1990-06-07 Eucalyptus gr~        100     6  1990
#>  8 -34.6  140. GBIF      10854~ 2006-10-20 Maireana erio~         50    10  2006
#>  9 -34.6  140. GBIF      10853~ 1990-06-07 Dodonaea sten~        100     6  1990
#> 10 -34.6  140. GBIF      10853~ 1990-06-07 Eucalyptus ol~        100     6  1990
#> # ... with 686 more rows
…
Rasterizing the current data is then done via add_raster_cell. This function has the argument add_xy which will add the centroid of the cell back to the data frame using the same names as the original x and y columns. Alternatively, the x and y columns will be lost from the returned data frame, replaced with cell, the raster cell id.

  flor_geo_bin <- envRaster::add_raster_cell(aoi_raster
                               , flor_geo_rel
                               , add_xy = TRUE
                               , crs_df = 4283
                               ) %>%
    add_time_stamp()

  # Have a look at results
  flor_geo_bin
#> # A tibble: 696 x 10
#>     cell  long   lat data_name site   date       original_name  rel_metres month
#>    <int> <dbl> <dbl> <fct>     <chr>  <date>     <chr>               <dbl> <dbl>
#>  1  7340  140. -34.5 GBIF      10854~ 2006-10-18 Maireana radi~         50    10
#>  2  7340  140. -34.5 GBIF      10854~ 2006-10-18 Roepera glauca         50    10
#>  3  7340  140. -34.5 GBIF      10854~ 2006-10-18 Beyeria leche~         50    10
#>  4  7340  140. -34.5 GBIF      10854~ 2006-10-18 Melaleuca lan~         50    10
#>  5  7340  140. -34.5 GBIF      10854~ 2006-10-18 Sclerolaena p~         50    10
#>  6  7340  140. -34.5 GBIF      10854~ 2006-10-18 Maireana erio~         50    10
#>  7  7340  140. -34.5 GBIF      10854~ 2006-10-18 Eucalyptus ol~         50    10
#>  8  7340  140. -34.5 GBIF      10854~ 2006-10-18 Westringia ri~         50    10
#>  9  7340  140. -34.5 GBIF      10854~ 2006-10-18 Maireana pent~         50    10
#> 10  7340  140. -34.5 GBIF      10854~ 2006-10-18 Walsholaria m~         50    10
#> # ... with 686 more rows, and 1 more variable: year <dbl>
…
taxonomy: provides the full taxonomic hierarchy for each unique taxa in lutaxa. The column taxa in taxonomy should not have any duplicates. The output can also include lifeform, lifespan and indigenous status columns, if they are available from any of the original data sources and they are provided to make_taxonomy.

common: the result of an attempt to find a common name for each taxa in taxonomy. Split from taxonomy as it seemed impossible to manage duplication.

  taxonomy_file <- "inst/luGBIF.rds"

  taxa <- make_taxonomy(flor_geo_bin
                        , out_file = taxonomy_file
                        )

A look at lutaxa.

  taxa$lutaxa
#> # A tibble: 130 x 4
#>    taxa                   searched_name          original_name          rank   
#>    <chr>                  <chr>                  <chr>                  <ord>  
#>  1 Westringia rigida      Westringia rigida      Westringia rigida      species
#>  2 Walsholaria muelleri   Walsholaria muelleri   Walsholaria muelleri   species
#>  3 Walsholaria magniflora Walsholaria magniflora Walsholaria magniflora species
#>  4 Vittadinia dissecta    Vittadinia dissecta    Vittadinia dissecta    species
#>  5 Vittadinia cuneata     Vittadinia cuneata     Vittadinia cuneata     species
#>  6 Triodia scariosa       Triodia scariosa       Triodia scariosa       species
#>  7 Triodia irritans       Triodia irritans       Triodia irritans       species
#>  8 Thysanotus patersonii  Thysanotus patersonii  Thysanotus patersonii  species
#>  9 Thysanotus baueri      Thysanotus baueri      Thysanotus baueri      species
#> 10 Templetonia rossii     Templetonia rossii     Templetonia rossii     species
#> # ... with 120 more rows

and taxa_taxonomy

  taxa$taxonomy
#> # A tibble: 130 x 9
#>    taxa                   kingdom phylum order family genus species class best_key
#>    <chr>                  <chr>   <chr>  <chr> <chr>  <chr> <chr>   <chr>    <int>
#>  1 Westringia rigida      Plantae Trach~ Lami~ Lamia~ West~ Westri~ Magn~  7307131
#>  2 Walsholaria muelleri   Plantae Trach~ Aste~ Aster~ Wals~ Walsho~ Magn~ 10844030
#>  3 Walsholaria magniflora Plantae Trach~ Aste~ Aster~ Wals~ Walsho~ Magn~ 10888366
#>  4 Vittadinia dissecta    Plantae Trach~ Aste~ Aster~ Vitt~ Vittad~ Magn~  3138910
#>  5 Vittadinia cuneata     Plantae Trach~ Aste~ Aster~ Vitt~ Vittad~ Magn~  3138897
#>  6 Triodia scariosa       Plantae Trach~ Poal~ Poace~ Trio~ Triodi~ Lili~  4116962
#>  7 Triodia irritans       Plantae Trach~ Poal~ Poace~ Trio~ Triodi~ Lili~  4117582
#>  8 Thysanotus patersonii  Plantae Trach~ Aspa~ Aspar~ Thys~ Thysan~ Lili~  5304110
#>  9 Thysanotus baueri      Plantae Trach~ Aspa~ Aspar~ Thys~ Thysan~ Lili~  5304114
#> 10 Templetonia rossii     Plantae Trach~ Faba~ Fabac~ Temp~ Temple~ Magn~  8279290
#> # ... with 120 more rows
…
At this point, the context is also exclusively applied.

Thus the output of applying filter_taxa is to generate a single record for each taxa within each context. An attempt will also be made to provide a single value for any extra_cols but this will fail to provide a unique result if there are values within any of extra_cols that are not equivalent within a taxa and context.

  flor_taxa <- filter_taxa(flor_geo_bin
                          , taxa_col = "original_name"
                          , context = context
                          , taxonomy = taxa
                          ) %>%
    add_time_stamp()

  # Have a look at results
  flor_taxa
#> # A tibble: 694 x 6
#>     year month   lat  long  cell taxa                
#>    <dbl> <dbl> <dbl> <dbl> <int> <chr>               
#>  1  2006    10 -34.5  140.  7340 Maireana radiata    
#>  2  2006    10 -34.6  140. 95018 Maireana radiata    
#>  3  2006    10 -34.5  140.  7340 Roepera glauca      
#>  4  1990     5 -34.5  140. 18098 Roepera glauca      
#>  5  1990     6 -34.6  140. 80157 Roepera glauca      
#>  6  2006    10 -34.6  140. 83038 Roepera glauca      
#>  7  2006    10 -34.6  140. 84812 Roepera glauca      
#>  8  2006    10 -34.5  140.  7340 Beyeria lechenaultii
#>  9  2006    10 -34.5  140. 14814 Beyeria lechenaultii
#> 10  1990     5 -34.5  140. 18417 Beyeria lechenaultii
#> # ... with 684 more rows
…
Thus, filtering ‘singleton’ sites (a site with only a single taxa was recorded) is often prudent.

This will also inadvertently filter legitimate single taxa lists. For example, some areas of samphire or mangroves may have only a single taxa recorded within a survey site. As always, it depends on the goal of any particular analysis whether this trade-off will be worthwhile.

  # Filter singletons
  flor_single <- filter_counts(flor_taxa
                              , context = context
                              , thresh = 1
                              ) %>%
    add_time_stamp()

  # Have a look at results
  flor_single
#> # A tibble: 692 x 6
#>     year month   lat  long  cell taxa                
#>    <dbl> <dbl> <dbl> <dbl> <int> <chr>               
#>  1  2006    10 -34.5  140.  7340 Maireana radiata    
#>  2  2006    10 -34.6  140. 95018 Maireana radiata    
#>  3  2006    10 -34.5  140.  7340 Roepera glauca      
#>  4  1990     5 -34.5  140. 18098 Roepera glauca      
#>  5  1990     6 -34.6  140. 80157 Roepera glauca      
#>  6  2006    10 -34.6  140. 83038 Roepera glauca      
#>  7  2006    10 -34.6  140. 84812 Roepera glauca      
#>  8  2006    10 -34.5  140.  7340 Beyeria lechenaultii
#>  9  2006    10 -34.5  140. 14814 Beyeria lechenaultii
#> 10  1990     5 -34.5  140. 18417 Beyeria lechenaultii
#> # ... with 682 more rows
…
  # filter using model results
  flor_effort <- flor_single %>%
    dplyr::inner_join(effort_mod$mod_cell_result %>%
                        dplyr::filter(keep)
                      ) %>%
    dplyr::select(names(flor_single)) %>%
    add_time_stamp()

  # Have a look at results
  flor_effort
#> # A tibble: 692 x 6
#>     year month   lat  long  cell taxa                
#>    <dbl> <dbl> <dbl> <dbl> <int> <chr>               
#>  1  2006    10 -34.5  140.  7340 Maireana radiata    
#>  2  2006    10 -34.6  140. 95018 Maireana radiata    
#>  3  2006    10 -34.5  140.  7340 Roepera glauca      
#>  4  1990     5 -34.5  140. 18098 Roepera glauca      
#>  5  1990     6 -34.6  140. 80157 Roepera glauca      
#>  6  2006    10 -34.6  140. 83038 Roepera glauca      
#>  7  2006    10 -34.6  140. 84812 Roepera glauca      
#>  8  2006    10 -34.5  140.  7340 Beyeria lechenaultii
#>  9  2006    10 -34.5  140. 14814 Beyeria lechenaultii
#> 10  1990     5 -34.5  140. 18417 Beyeria lechenaultii
#> # ... with 682 more rows

Proportion of sites at which a taxa occurs

When clustering biological data, it is often useful to exclude rare taxa from the data set. filter_prop allows filtering such taxa.

  # Filter taxa recorded at less than 5% of contexts
  flor_prop <- filter_prop(flor_effort
                           , context = context
                           , default_per = 5
                           ) %>%
    add_time_stamp()
  
  # Have a look at results
  flor_prop
#> # A tibble: 612 x 6
#>     year month   lat  long  cell taxa                
#>    <dbl> <dbl> <dbl> <dbl> <int> <chr>               
#>  1  2006    10 -34.5  140.  7340 Roepera glauca      
#>  2  1990     5 -34.5  140. 18098 Roepera glauca      
#>  3  1990     6 -34.6  140. 80157 Roepera glauca      
#>  4  2006    10 -34.6  140. 83038 Roepera glauca      
#>  5  2006    10 -34.6  140. 84812 Roepera glauca      
#>  6  2006    10 -34.5  140.  7340 Beyeria lechenaultii
#>  7  2006    10 -34.5  140. 14814 Beyeria lechenaultii
#>  8  1990     5 -34.5  140. 18417 Beyeria lechenaultii
#>  9  2006    10 -34.5  140. 19607 Beyeria lechenaultii
#> 10  2006    10 -34.5  140. 22287 Beyeria lechenaultii
#> # ... with 602 more rows
Time

So far, all contexts year, month, lat, long or cell have been kept. It may be desirable to keep only the most recent contexts. Just use dplyr…

  flor_recent <- flor_prop %>%
    dplyr::group_by(across(any_of(context[!context %in% c("month", "year")]))) %>%
    dplyr::filter(year == max(year)
                  , month == max(month)
                  ) %>%
    dplyr::ungroup() %>%
    add_time_stamp()

  # Have a look at results
  flor_recent
#> # A tibble: 541 x 6
#>     year month   lat  long  cell taxa                
#>    <dbl> <dbl> <dbl> <dbl> <int> <chr>               
#>  1  2006    10 -34.5  140.  7340 Roepera glauca      
#>  2  1990     5 -34.5  140. 18098 Roepera glauca      
#>  3  2006    10 -34.6  140. 83038 Roepera glauca      
#>  4  2006    10 -34.6  140. 84812 Roepera glauca      
#>  5  2006    10 -34.5  140.  7340 Beyeria lechenaultii
#>  6  2006    10 -34.5  140. 14814 Beyeria lechenaultii
#>  7  1990     5 -34.5  140. 18417 Beyeria lechenaultii
#>  8  2006    10 -34.5  140. 19607 Beyeria lechenaultii
#>  9  2006    10 -34.5  140. 22287 Beyeria lechenaultii
#> 10  2006    10 -34.5  140. 37727 Beyeria lechenaultii
#> # ... with 531 more rows
…
