envClean • envClean
…
library("envClean")

Suggested workflow

After many, many iterations, the following workflow has been found to be ok. Only ok. There is no awesome when cleaning large, unstructured data.

Import

Querying and uniting disparate data sources into a single data set is a challenge in its own right. See envImport for tools to assist there. Once you’ve imported and combined all your data, read on.

Here, we’ll start with combined floristic data (called flor_all) from the mallee in South Australia. This data set is provided with envClean.

  flor_all
#> # A tibble: 13,104 x 13
#>      lat  long data_name site   date       original_name cover cover_code quad_x
#>    <dbl> <dbl> <fct>     <chr>  <date>     <chr>         <dbl> <chr>       <dbl>
#>  1 -34.5  140. BCM       -2110~ 2013-01-23 Eucalyptus p~    NA <NA>           20
#>  2 -34.5  140. BCM       -2110~ 2013-01-23 Triodia irri~    NA <NA>           20
#>  3 -34.5  140. BCM       -2110~ 2013-01-23 Carpobrotus ~    NA <NA>           20
#>  4 -34.5  140. BCM       -2110~ 2013-01-23 Geijera line~    NA <NA>           20
#>  5 -34.5  140. BCM       -2110~ 2013-01-23 Sclerolaena ~    NA <NA>           20
#>  6 -34.5  140. BCM       -2110~ 2013-01-23 Eucalyptus o~    NA <NA>           20
#>  7 -34.5  140. BCM       -2110~ 2013-01-23 Sisymbrium i~    NA <NA>           20
#>  8 -34.5  140. BCM       -5177~ 2006-09-10 Olearia pime~    NA <NA>           30
#>  9 -34.5  140. BCM       -5177~ 2006-09-10 Eucalyptus o~    NA <NA>           30
#> 10 -34.5  140. BCM       -5177~ 2006-09-10 Eucalyptus g~    NA <NA>           30
#> # ... with 13,094 more rows, and 4 more variables: quad_y <dbl>,
#> #   rel_dist <dbl>, month <dbl>, year <dbl>
…
Filtering flor_all to aoi is done with filter_aoi.

  flor_aoi <- filter_aoi(flor_all
                         , use_aoi = aoi
                         , crs_aoi = st_crs(aoi)
                         ) %>%
    add_time_stamp()
#> Joining, by = c("lat", "long")

  flor_aoi
#> # A tibble: 3,485 x 13
#>      lat  long data_name site   date       original_name cover cover_code quad_x
#>    <dbl> <dbl> <fct>     <chr>  <date>     <chr>         <dbl> <chr>       <dbl>
#>  1 -34.5  140. BCM       -5177~ 2006-09-10 Olearia pime~    NA <NA>           30
#>  2 -34.5  140. BCM       -5177~ 2006-09-10 Eucalyptus o~    NA <NA>           30
#>  3 -34.5  140. BCM       -5177~ 2006-09-10 Eucalyptus g~    NA <NA>           30
#>  4 -34.5  140. BCM       -5177~ 2006-09-10 Maireana tri~    NA <NA>           30
#>  5 -34.5  140. BCM       -5177~ 2006-09-10 Maireana pen~    NA <NA>           30
#>  6 -34.5  140. BCM       -5177~ 2006-09-10 Santalum mur~    NA <NA>           30
#>  7 -34.5  140. BCM       -5177~ 2006-09-10 Rhagodia cra~    NA <NA>           30
#>  8 -34.5  140. BCM       -5177~ 2006-09-10 Eremophila g~    NA <NA>           30
#>  9 -34.5  140. BCM       -5177~ 2006-09-10 Geijera line~    NA <NA>           30
#> 10 -34.5  140. BCM       -5177~ 2006-09-10 Maireana eri~    NA <NA>           30
#> # ... with 3,475 more rows, and 4 more variables: quad_y <dbl>, rel_dist <dbl>,
#> #   month <dbl>, year <dbl>
…
  context <- c("year", "month", "lat", "long", "cell")

  include_data_name <- c("ALIS","BCM","NVB","TERN")

  flor_rel <- filter_spat_rel(flor_aoi
                              , dist_col = "rel_dist"
                              , dist = 100
                              , context = context
                              , over_ride = list(data_name = include_data_name)
                              ) %>%
    add_time_stamp()
#> Joining, by = c("lat", "long", "month", "year")
  
  flor_rel
#> # A tibble: 2,332 x 13
#>      lat  long data_name site   date       original_name cover cover_code quad_x
#>    <dbl> <dbl> <fct>     <chr>  <date>     <chr>         <dbl> <chr>       <dbl>
#>  1 -34.5  140. BCM       -5177~ 2006-09-10 Olearia pime~    NA <NA>           30
#>  2 -34.5  140. BCM       -5177~ 2006-09-10 Eucalyptus o~    NA <NA>           30
#>  3 -34.5  140. BCM       -5177~ 2006-09-10 Eucalyptus g~    NA <NA>           30
#>  4 -34.5  140. BCM       -5177~ 2006-09-10 Maireana tri~    NA <NA>           30
#>  5 -34.5  140. BCM       -5177~ 2006-09-10 Maireana pen~    NA <NA>           30
#>  6 -34.5  140. BCM       -5177~ 2006-09-10 Santalum mur~    NA <NA>           30
#>  7 -34.5  140. BCM       -5177~ 2006-09-10 Rhagodia cra~    NA <NA>           30
#>  8 -34.5  140. BCM       -5177~ 2006-09-10 Eremophila g~    NA <NA>           30
#>  9 -34.5  140. BCM       -5177~ 2006-09-10 Geijera line~    NA <NA>           30
#> 10 -34.5  140. BCM       -5177~ 2006-09-10 Maireana eri~    NA <NA>           30
#> # ... with 2,322 more rows, and 4 more variables: quad_y <dbl>, rel_dist <dbl>,
#> #   month <dbl>, year <dbl>
…
Rasterizing the current data is then done via add_raster_cell. This function has the argument add_xy which will add the centroid of the cell back to the data frame using the same names as the original x and y columns. Alternatively, the x and y columns will be lost from the returned data frame, replaced with cell, the raster cell id.

  flor_cell <- add_raster_cell(aoi_raster
                               , flor_rel
                               , add_xy = TRUE
                               , crs_df = 4283
                               ) %>%
    add_time_stamp()
#> Joining, by = c("old_y", "old_x")

  flor_cell
#> # A tibble: 2,330 x 14
#>     cell  long   lat data_name site   date       original_name  cover cover_code
#>    <int> <dbl> <dbl> <fct>     <chr>  <date>     <chr>          <dbl> <chr>     
#>  1  7040  140. -34.5 EGIS      SUP29~ 2006-10-18 Westringia ri~    NA <NA>      
#>  2  7040  140. -34.5 EGIS      SUP29~ 2006-10-18 Maireana tric~    NA <NA>      
#>  3  7040  140. -34.5 EGIS      SUP29~ 2006-10-18 Maireana pent~    NA <NA>      
#>  4  7040  140. -34.5 EGIS      SUP29~ 2006-10-18 Olearia muell~    NA <NA>      
#>  5  7040  140. -34.5 EGIS      SUP29~ 2006-10-18 Geijera linea~    NA <NA>      
#>  6  7040  140. -34.5 EGIS      SUP29~ 2006-10-18 Halgania andr~    NA <NA>      
#>  7  7040  140. -34.5 EGIS      SUP29~ 2006-10-18 Rhagodia cras~    NA <NA>      
#>  8  7040  140. -34.5 EGIS      SUP29~ 2006-10-18 Ptilotus semi~    NA <NA>      
#>  9  7040  140. -34.5 EGIS      SUP29~ 2006-10-18 Austrostipa a~    NA <NA>      
#> 10  7040  140. -34.5 EGIS      SUP29~ 2006-10-18 Eucalyptus gr~    NA <NA>      
#> # ... with 2,320 more rows, and 5 more variables: quad_x <dbl>, quad_y <dbl>,
#> #   rel_dist <dbl>, month <dbl>, year <dbl>
…
lutaxa. This is a simple lookup from the original name provided to the taxa to use in place of that name. Thus, taxa is likely to be duplicated

taxa_taxonomy provides the full taxonomic hierarchy for each taxa in the lutaxa object. The column taxa should not have any duplicates. The output can also include lifespan and indigenous status columns, if they are available from any of the original data sources and they are provided to make_taxa_taxonomy.

  make_taxa_taxonomy(flor_cell
                     , save_luGBIF = path("vignettes","luGBIF.feather")
                     )
#> Loading required namespace: feather
#> Joining, by = "original_name"
#> Joining, by = c("taxa", "kingdom", "phylum", "order", "family", "genus", "species", "class")

lutaxa is returned to the global environment.

  lutaxa
#> # A tibble: 352 x 3
#>    original_name                             taxa                   rank      
#>    <chr>                                     <chr>                  <ord>     
#>  1 Zygophyllum aurantiacum (NC)              Roepera aurantiaca     subspecies
#>  2 Westringia rigida                         Westringia rigida      species   
#>  3 Westringia rigida R.Br.                   Westringia rigida      species   
#>  4 Wahlenbergia luteola                      Wahlenbergia luteola   species   
#>  5 Wahlenbergia luteola P.J.Sm.              Wahlenbergia luteola   species   
#>  6 Vulpia myuros f. myuros                   Vulpia myuros          species   
#>  7 Vulpia muralis                            Vulpia muralis         species   
#>  8 Vulpia muralis (Kunth) Nees               Vulpia muralis         species   
#>  9 Vittadinia megacephala                    Vittadinia megacephala species   
#> 10 Vittadinia megacephala (Benth.) J.M.Black Vittadinia megacephala species   
#> # ... with 342 more rows

as is taxa_taxonomy

  taxa_taxonomy
#> # A tibble: 195 x 8
#>    taxa                    kingdom phylum  order  family  genus  species   class
#>    <chr>                   <chr>   <chr>   <chr>  <chr>   <chr>  <chr>     <chr>
#>  1 Roepera aurantiaca      Plantae Trache~ Zygop~ Zygoph~ Roepe~ Roepera ~ Magn~
#>  2 Westringia rigida       Plantae Trache~ Lamia~ Lamiac~ Westr~ Westring~ Magn~
#>  3 Wahlenbergia luteola    Plantae Trache~ Aster~ Campan~ Wahle~ Wahlenbe~ Magn~
#>  4 Vulpia myuros           Plantae Trache~ Poales Poaceae Vulpia Vulpia m~ Lili~
#>  5 Vulpia muralis          Plantae Trache~ Poales Poaceae Vulpia Vulpia m~ Lili~
#>  6 Vittadinia megacephala  Plantae Trache~ Aster~ Astera~ Vitta~ Vittadin~ Magn~
#>  7 Vittadinia gracilis     Plantae Trache~ Aster~ Astera~ Vitta~ Vittadin~ Magn~
#>  8 Vittadinia dissecta     Plantae Trache~ Aster~ Astera~ Vitta~ Vittadin~ Magn~
#>  9 Vittadinia cuneata      Plantae Trache~ Aster~ Astera~ Vitta~ Vittadin~ Magn~
#> 10 Vittadinia cervicularis Plantae Trache~ Aster~ Astera~ Vitta~ Vittadin~ Magn~
#> # ... with 185 more rows
…
  flor_taxa <- filter_taxa(flor_cell
                          , taxa_col = "original_name"
                          , context = context
                          , do_cov = TRUE
                          , lucov = envEcosystems::lucover
                          ) %>%
    add_time_stamp()
#> Joining, by = "original_name"
#> Joining, by = "taxa"
#> Joining, by = "original_name"
#> Joining, by = "cover_code"
#> Joining, by = c("year", "month", "lat", "long", "cell", "taxa")

  flor_taxa
#> # A tibble: 860 x 7
#>     year month   lat  long  cell taxa              use_cover
#>    <dbl> <dbl> <dbl> <dbl> <int> <chr>                 <dbl>
#>  1  2006    10 -34.5  140.  7040 Westringia rigida     0.015
#>  2  2006    10 -34.5  140. 12659 Westringia rigida     0.01 
#>  3  1990     5 -34.5  140. 18098 Westringia rigida     0.015
#>  4  1990     5 -34.5  140. 18722 Westringia rigida     0.015
#>  5  1990     5 -34.5  140. 19039 Westringia rigida     0.015
#>  6  2006    10 -34.5  140. 19307 Westringia rigida     0.01 
#>  7  1990     6 -34.5  140. 34485 Westringia rigida     0.015
#>  8  2006    10 -34.5  140. 37110 Westringia rigida     0.015
#>  9  1990     4 -34.5  140. 37110 Westringia rigida     0.015
#> 10  1990     4 -34.5  140. 39212 Westringia rigida     0.015
#> # ... with 850 more rows
…
An implicit assumption in collation of data sources is usually that records were a list of taxa collected at a specific spatial location (and date). In many cases this assumption proves incorrect. For example, records may be related to, say, tree health monitoring where no other taxa were concurrently recorded.

Thus, filtering ‘singleton’ sites (a site with only a single taxa was recorded) is often prudent.

This will also inadvertently filter legitimate single taxa lists. For example, some areas of samphire or mangroves may have only a single taxa recorded within a survey site. As always, it depends on the goal of any particular analysis whether this trade-off will be worthwhile.

  flor_single <- filter_counts(flor_taxa
                              , context = context
                              , thresh = 1
                              ) %>%
    add_time_stamp()

  flor_single
#> # A tibble: 853 x 7
#>     year month   lat  long  cell taxa              use_cover
#>    <dbl> <dbl> <dbl> <dbl> <int> <chr>                 <dbl>
#>  1  2006    10 -34.5  140.  7040 Westringia rigida     0.015
#>  2  2006    10 -34.5  140. 12659 Westringia rigida     0.01 
#>  3  1990     5 -34.5  140. 18098 Westringia rigida     0.015
#>  4  1990     5 -34.5  140. 18722 Westringia rigida     0.015
#>  5  1990     5 -34.5  140. 19039 Westringia rigida     0.015
#>  6  2006    10 -34.5  140. 19307 Westringia rigida     0.01 
#>  7  1990     6 -34.5  140. 34485 Westringia rigida     0.015
#>  8  2006    10 -34.5  140. 37110 Westringia rigida     0.015
#>  9  1990     4 -34.5  140. 37110 Westringia rigida     0.015
#> 10  1990     4 -34.5  140. 39212 Westringia rigida     0.015
#> # ... with 843 more rows
…
