Attempt to find a taxa for names with no match in galah::search_taxa() — make_unmatched_overrides • envClean
…
#> Joining with `by = join_by(original_name)`
#> Joining with `by = join_by(original_name)`
#> saving results to /tmp/nige/RtmpSi8tiG/file1a6b6f15f99c4.parquet
#> The following were completely unmatched: Galaxias sp. nov. Hunter and Some rubbish. Consider providing more taxonomic levels, or an override, for each unmatched taxa?
#> Joining with `by = join_by(original_name)`
#> Warning: There was 1 warning in `dplyr::filter()`.
#> ℹ In argument: `returned_rank == min(returned_rank)`.
#> Caused by warning in `min()`:
#> ! no non-missing arguments to min; returning Inf
#> Joining with `by = join_by(original_name)`
#> Joining with `by = join_by(original_name)`
#> Joining with `by = join_by(original_name)`
#> Joining with `by = join_by(original_name)`
  taxonomy$raw
#> # A tibble: 22 × 20
#>    original_name              search_term scientific_name scientific_name_auth…¹
#>    <chr>                      <chr>       <chr>           <chr>                 
#>  1 Bettongia lesueur Barrow … Bettongia … Bettongia lesu… NA                    
#>  2 Charadrius mongolus all s… Charadrius… Charadrius (Ch… Pallas, 1776          
#>  3 Charadrius rubricollis     Charadrius… Phalaropus lob… (Linnaeus, 1758)      
#>  4 Eucalyptus                 Eucalyptus  Eucalyptus      L'Hér.                
#>  5 Eucalyptus viminalis       Eucalyptus… Eucalyptus vim… Labill.               
#>  6 Eucalyptus viminalis cygn… Eucalyptus… Eucalyptus vim… Boomsma               
#>  7 Galaxias sp. nov. Hunter   Galaxias s… NA              NA                    
#>  8 Gehyra montium (revised)   Gehyra mon… Gehyra montium  Storr, 1982           
#>  9 Halosarcia sp.  (NC)       Halosarcia… Tecticornia     Hook.f.               
#> 10 Korthalsella japonica f. … Korthalsel… Korthalsella j… (Thunb.) Engl.        
#> # ℹ 12 more rows
#> # ℹ abbreviated name: ¹​scientific_name_authorship
#> # ℹ 16 more variables: taxon_concept_id <chr>, rank <ord>, match_type <chr>,
#> #   kingdom <chr>, phylum <chr>, class <chr>, order <chr>, family <chr>,
#> #   genus <chr>, species <chr>, vernacular_name <chr>, stamp <dttm>,
#> #   subspecies <chr>, rank_adj <ord>, original_is_tri <lgl>,
#> #   original_is_bi <lgl>
…
#> 17            TRUE          FALSE
#> 18            TRUE          FALSE
#> 19            TRUE          FALSE
#> 20            TRUE          FALSE
#> 21           FALSE           TRUE
#> 22           FALSE           TRUE
#> 23           FALSE           TRUE
#> 24            TRUE          FALSE
#> 25            TRUE          FALSE
#> 26           FALSE          FALSE
#> 27           FALSE           TRUE
#> 
#> $subspecies
#> $subspecies$lutaxa
#> # A tibble: 25 × 7
#>    original_name     match_type matched_rank returned_rank taxa  original_is_tri
#>    <chr>             <chr>      <fct>        <ord>         <chr> <lgl>          
#>  1 Amytornis modest… canonical… species      species       Amyt… FALSE          
#>  2 Amytornis modest… exactMatch subspecies   subspecies    Amyt… TRUE           
#>  3 Amytornis modest… exactMatch subspecies   subspecies    Amyt… TRUE           
#>  4 Amytornis striat… exactMatch species      species       Amyt… FALSE          
#>  5 Amytornis whitei  exactMatch species      species       Amyt… FALSE          
#>  6 Bettongia lesueu… exactMatch subspecies   subspecies    Bett… TRUE           
#>  7 Charadrius mongo… higherMat… species      species       Char… FALSE          
#>  8 Charadrius rubri… exactMatch species      species       Phal… FALSE          
#>  9 Eucalyptus        exactMatch genus        genus         Euca… FALSE          
#> 10 Eucalyptus vimin… exactMatch species      species       Euca… FALSE          
#> # ℹ 15 more rows
#> # ℹ 1 more variable: original_is_bi <lgl>
#> 
#> $subspecies$taxonomy
#> # A tibble: 24 × 9
#>    taxa               kingdom phylum class order family genus species subspecies
#>    <chr>              <chr>   <chr>  <chr> <chr> <chr>  <chr> <chr>   <chr>     
#>  1 Amytornis modestus Animal… Chord… Aves  Pass… Malur… Amyt… Amytor… NA        
#>  2 Amytornis modestu… Animal… Chord… Aves  Pass… Malur… Amyt… Amytor… Amytornis…
#>  3 Amytornis modestu… Animal… Chord… Aves  Pass… Malur… Amyt… Amytor… Amytornis…
#>  4 Amytornis striatus Animal… Chord… Aves  Pass… Malur… Amyt… Amytor… NA        
#>  5 Amytornis whitei   Animal… Chord… Aves  Pass… Malur… Amyt… Amytor… NA        
#>  6 Bettongia lesueur… Animal… Chord… Mamm… Dipr… Potor… Bett… Betton… Bettongia…
#>  7 Charadrius mongol… Animal… Chord… Aves  Char… Chara… Char… Charad… NA        
#>  8 Phalaropus lobatus Animal… Chord… Aves  Char… Scolo… Phal… Phalar… NA        
#>  9 Eucalyptus         Plantae Charo… Equi… Myrt… Myrta… Euca… NA      NA        
#> 10 Eucalyptus vimina… Plantae Charo… Equi… Myrt… Myrta… Euca… Eucaly… NA        
#> # ℹ 14 more rows
…
